   1.0000000e+00   1.0000000e+00   2.0173000e+00   7.7133000e+00   0.0000000e+00
   1.0000000e+00   2.0000000e+00   6.9547000e+00   8.7582000e+00   0.0000000e+00
   1.0000000e+00   3.0000000e+00   8.4413000e+00   9.0662000e+00   0.0000000e+00
   1.0000000e+00   4.0000000e+00   9.5226000e+00   9.2853000e+00   0.0000000e+00
   1.0000000e+00   5.0000000e+00   1.0411400e+01   9.4615000e+00   0.0000000e+00
   1.0000000e+00   6.0000000e+00   1.1183000e+01   9.6109000e+00   0.0000000e+00
   1.0000000e+00   7.0000000e+00   1.1872500e+01   9.7414000e+00   0.0000000e+00
   1.0000000e+00   8.0000000e+00   1.2497700e+01   9.8570000e+00   0.0000000e+00
   1.0000000e+00   9.0000000e+00   1.3063700e+01   9.9591000e+00   0.0000000e+00
   1.0000000e+00   1.0000000e+01   1.3500100e+01   1.0035800e+01   0.0000000e+00
   1.0000000e+00   1.1000000e+01   1.3819200e+01   1.0090600e+01   0.0000000e+00
   1.0000000e+00   1.2000000e+01   1.4301100e+01   1.0171100e+01   0.0000000e+00
   1.0000000e+00   1.3000000e+01   1.4773000e+01   1.0247800e+01   0.0000000e+00
   1.0000000e+00   1.4000000e+01   1.5236900e+01   1.0321300e+01   0.0000000e+00
   1.0000000e+00   1.5000000e+01   1.5694600e+01   1.0391700e+01   0.0000000e+00
   1.0000000e+00   1.6000000e+01   1.6147500e+01   1.0459400e+01   0.0000000e+00
   1.0000000e+00   1.7000000e+01   1.6596500e+01   1.0524500e+01   0.0000000e+00
   1.0000000e+00   1.8000000e+01   1.7042800e+01   1.0587300e+01   0.0000000e+00
   1.0000000e+00   1.9000000e+01   1.7487000e+01   1.0647800e+01   0.0000000e+00
   1.0000000e+00   2.0000000e+01   1.7929800e+01   1.0706200e+01   0.0000000e+00
   1.0000000e+00   2.1000000e+01   1.8371900e+01   1.0762600e+01   0.0000000e+00
   1.0000000e+00   2.2000000e+01   1.8813800e+01   1.0817000e+01   0.0000000e+00
   1.0000000e+00   2.3000000e+01   1.9255900e+01   1.0869600e+01   0.0000000e+00
   1.0000000e+00   2.4000000e+01   1.9698700e+01   1.0920200e+01   0.0000000e+00
   1.0000000e+00   2.5000000e+01   2.0142600e+01   1.0969100e+01   0.0000000e+00
   1.0000000e+00   2.6000000e+01   2.0587900e+01   1.1016200e+01   0.0000000e+00
   1.0000000e+00   2.7000000e+01   2.1034900e+01   1.1061500e+01   0.0000000e+00
   1.0000000e+00   2.8000000e+01   2.1483900e+01   1.1105100e+01   0.0000000e+00
   1.0000000e+00   2.9000000e+01   2.1935300e+01   1.1147000e+01   0.0000000e+00
   1.0000000e+00   3.0000000e+01   2.2389300e+01   1.1187100e+01   0.0000000e+00
   1.0000000e+00   3.1000000e+01   2.2846000e+01   1.1225500e+01   0.0000000e+00
   1.0000000e+00   3.2000000e+01   2.3305900e+01   1.1262100e+01   0.0000000e+00
   1.0000000e+00   3.3000000e+01   2.3769100e+01   1.1297100e+01   0.0000000e+00
   1.0000000e+00   3.4000000e+01   2.4235800e+01   1.1330200e+01   0.0000000e+00
   1.0000000e+00   3.5000000e+01   2.4706300e+01   1.1361600e+01   0.0000000e+00
   1.0000000e+00   3.6000000e+01   2.5180700e+01   1.1391200e+01   0.0000000e+00
   1.0000000e+00   3.7000000e+01   2.5659300e+01   1.1419100e+01   0.0000000e+00
   1.0000000e+00   3.8000000e+01   2.6142400e+01   1.1445100e+01   0.0000000e+00
   1.0000000e+00   3.9000000e+01   2.6630000e+01   1.1469200e+01   0.0000000e+00
   1.0000000e+00   4.0000000e+01   2.7122400e+01   1.1491400e+01   0.0000000e+00
   1.0000000e+00   4.1000000e+01   2.7618700e+01   1.1511700e+01   0.0000000e+00
   1.0000000e+00   4.2000000e+01   2.8119600e+01   1.1530000e+01   0.0000000e+00
   1.0000000e+00   4.3000000e+01   2.8627400e+01   1.1546400e+01   0.0000000e+00
   1.0000000e+00   4.4000000e+01   2.9142000e+01   1.1560800e+01   0.0000000e+00
   1.0000000e+00   4.5000000e+01   2.9663400e+01   1.1573100e+01   0.0000000e+00
   1.0000000e+00   4.6000000e+01   3.0191900e+01   1.1583400e+01   0.0000000e+00
   1.0000000e+00   4.7000000e+01   3.0728300e+01   1.1591400e+01   0.0000000e+00
   1.0000000e+00   4.8000000e+01   3.1273900e+01   1.1597300e+01   0.0000000e+00
   1.0000000e+00   4.9000000e+01   3.1831400e+01   1.1600900e+01   0.0000000e+00
   1.0000000e+00   5.0000000e+01   3.2427100e+01   1.1602200e+01   0.0000000e+00
