0	7.5	0
0.00645	7.5	0
0.0129	7.5	0
0.01935	7.5	0
0.0258	7.5	0
0.03225	7.5	0
0.0387	7.5	0
0.04514	7.501	0
0.05159	7.501	0
0.05804	7.501	0
0.06448	7.501	0
0.07093	7.502	0
0.07737	7.502	0
0.08381	7.502	0
0.09025	7.503	0
0.09669	7.503	0
0.1031	7.504	0
0.1096	7.504	0
0.116	7.504	0
0.1224	7.505	0
0.1288	7.506	0
0.1353	7.506	0
0.1417	7.507	0
0.1481	7.507	0
0.1545	7.508	0
0.1609	7.509	0
0.1674	7.509	0
0.1738	7.51	0
0.1802	7.511	0
0.1866	7.512	0
0.193	7.512	0
0.1994	7.513	0
0.2058	7.514	0
0.2121	7.515	0
0.2185	7.516	0
0.2249	7.517	0
0.2313	7.518	0
0.2376	7.519	0
0.244	7.52	0
0.2504	7.521	0
0.2567	7.522	0
0.2631	7.523	0
0.2694	7.524	0
0.2758	7.526	0
0.2821	7.527	0
0.2884	7.528	0
0.2948	7.529	0
0.3011	7.531	0
0.3074	7.532	0
0.3137	7.533	0
