2.017	7.713	0
6.955	8.758	0
8.441	9.066	0
9.523	9.285	0
10.41	9.461	0
11.18	9.611	0
11.87	9.741	0
12.5	9.857	0
13.06	9.959	0
13.5	10.04	0
13.82	10.09	0
14.3	10.17	0
14.77	10.25	0
15.24	10.32	0
15.69	10.39	0
16.15	10.46	0
16.6	10.52	0
17.04	10.59	0
17.49	10.65	0
17.93	10.71	0
18.37	10.76	0
18.81	10.82	0
19.26	10.87	0
19.7	10.92	0
20.14	10.97	0
20.59	11.02	0
21.03	11.06	0
21.48	11.11	0
21.94	11.15	0
22.39	11.19	0
22.85	11.23	0
23.31	11.26	0
23.77	11.3	0
24.24	11.33	0
24.71	11.36	0
25.18	11.39	0
25.66	11.42	0
26.14	11.45	0
26.63	11.47	0
27.12	11.49	0
27.62	11.51	0
28.12	11.53	0
28.63	11.55	0
29.14	11.56	0
29.66	11.57	0
30.19	11.58	0
30.73	11.59	0
31.27	11.6	0
31.83	11.6	0
32.43	11.6	0
